{
  "project_info": {
    "project_number": "208482077936",
    "firebase_url": "https://datvexedemo.firebaseio.com",
    "project_id": "datvexedemo",
    "storage_bucket": "datvexedemo.appspot.com"
  },
  "client": [
    {
      "client_info": {
        "mobilesdk_app_id": "1:208482077936:android:b28bf3300cde4f4d554635",
        "android_client_info": {
          "package_name": "com.example.datvexedemo"
        }
      },
      "oauth_client": [
        {
          "client_id": "208482077936-48t18f2ff93kk4ebct554olro6uf1vga.apps.googleusercontent.com",
          "client_type": 3
        }
      ],
      "api_key": [
        {
          "current_key": "AIzaSyAZj5LoUEy3dS4zW2z9o4t5duRcE-W380Y"
        }
      ],
      "services": {
        "appinvite_service": {
          "other_platform_oauth_client": [
            {
              "client_id": "208482077936-48t18f2ff93kk4ebct554olro6uf1vga.apps.googleusercontent.com",
              "client_type": 3
            }
          ]
        }
      }
    }
  ],
  "configuration_version": "1"
}